<?xml version="1.0" encoding="UTF-8"?>
<svg width="21px" height="21px" viewBox="0 0 21 21" version="1.1" xmlns="http://www.w3.org/2000/svg" xmlns:xlink="http://www.w3.org/1999/xlink">
    <!-- Generator: Sketch 54.1 (76490) - https://sketchapp.com -->
    <title>Combined Shape</title>
    <desc>Created with Sketch.</desc>
    <g id="Symbols" stroke="none" stroke-width="1" fill="none" fill-rule="evenodd">
        <g id="component/chat/desctop" transform="translate(-292.000000, -469.000000)" fill="#4DA1FF" fill-rule="nonzero">
            <g id="component/chat-block">
                <g id="Group-4">
                    <g id="Group">
                        <g id="Chat-Popup">
                            <path d="M302.5,469 C308.275,469 313,473.725 313,479.5 C313,485.275 308.275,490 302.5,490 C296.725,490 292,485.275 292,479.5 C292,473.725 296.725,469 302.5,469 Z M307,480.136792 L307,478.884434 L303.151724,478.884434 L303.151724,475 L301.848276,475 L301.848276,478.884434 L298,478.884434 L298,480.136792 L301.848276,480.136792 L301.848276,484 L303.151724,484 L303.151724,480.136792 L307,480.136792 Z" id="Combined-Shape"></path>
                        </g>
                    </g>
                </g>
            </g>
        </g>
    </g>
</svg>