<?xml version="1.0" encoding="UTF-8"?>
<svg width="181px" height="209px" viewBox="0 0 181 209" version="1.1" xmlns="http://www.w3.org/2000/svg" xmlns:xlink="http://www.w3.org/1999/xlink">
    <!-- Generator: Sketch 54.1 (76490) - https://sketchapp.com -->
    <title>ico/confetti</title>
    <desc>Created with Sketch.</desc>
    <g id="New-Design" stroke="none" stroke-width="1" fill="none" fill-rule="evenodd">
        <g id="2.3-Sign-Up-patient-finish" transform="translate(-863.000000, -160.000000)">
            <g id="ico/confetti" transform="translate(863.000000, 160.000000)">
                <g transform="translate(90.500000, 104.500000) rotate(-360.000000) translate(-90.500000, -104.500000) ">
                    <path d="M99.1890378,93.6954847 C81.8926968,77.0941737 58.7872749,70.3636114 47.5825661,78.6610853 C45.0539639,80.5334255 43.3554584,83.015032 42.4279851,85.9197844 L42.423196,85.9166027 L0.595901805,208.937472 L109.608348,139.563845 L109.354529,139.361816 C109.649853,139.172514 109.941982,138.981621 110.221342,138.774821 C121.426051,130.477347 116.486976,110.295205 99.1890378,93.6954847 Z" id="Path" fill="#A9CAFF"></path>
                    <path d="M47.6011244,78.0332854 C58.8197933,69.6864934 81.9540023,76.4586606 99.2734915,93.1570455 C116.591383,109.855431 121.536611,130.15753 110.317942,138.504322 C99.0992738,146.851114 75.966663,140.080547 58.6471738,123.382162 C41.3276846,106.683777 36.3824559,86.3800775 47.6011244,78.0332854 Z" id="Path" fill="#8AB4F5"></path>
                    <path d="M56.196671,84.5413992 C64.6640397,78.107461 82.1225801,83.3269933 95.1940708,96.1996953 C108.263988,109.070789 111.996677,124.721343 103.530882,131.155281 C95.0635131,137.587611 77.6033994,132.369687 64.533482,119.496985 C51.4619917,106.625892 47.7293022,90.9753375 56.196671,84.5413992 Z" id="Path" fill="#64A0FF"></path>
                    <g id="Group" transform="translate(10.965113, 5.994480)">
                        <path d="M18.8796918,119.751518 L13.8761834,134.507238 C20.3831306,138.936179 27.19872,142.724466 34.2609053,145.819638 C43.6745005,149.948124 53.5367412,152.865248 63.5723943,154.493115 C64.0289944,154.567831 64.4808211,154.637778 64.9310574,154.704546 L86.5551216,140.905834 C76.1424157,141.544899 47.7393538,140.936039 18.8796918,119.751518 L18.8796918,119.751518 Z" id="Path" fill="#3583FF"></path>
                        <path d="M5.00350799,160.67392 L0.154321133,174.976571 C2.00617596,175.901784 3.87712207,176.784075 5.76556862,177.612316 C10.6004371,179.731404 15.5546258,181.52937 20.5883618,183.001444 L38.3384856,171.673147 C28.8310248,170.210611 17.2410229,167.069337 5.00350799,160.67392 L5.00350799,160.67392 Z" id="Path" fill="#3583FF"></path>
                        <polygon id="Path" fill="#64A0FF" points="75.7749083 51.6084549 97.3369261 51.6084549 97.3369261 62.5647594 75.7749083 62.5647594"></polygon>
                        <polygon id="Path" fill="#3583FF" points="144.68809 15.5394483 159.935664 0.303635356 167.688318 8.05189812 152.442335 23.2861215"></polygon>
                    </g>
                    <polygon id="Path" fill="#64A0FF" points="44.6270515 49.5886423 59.5831222 34.6479321 67.1883535 42.2453529 52.2322828 57.187622"></polygon>
                    <polygon id="Path" fill="#A9CAFF" points="165.942415 84.9902285 180.898486 99.9319724 173.293254 107.529918 158.337184 92.5881745"></polygon>
                    <polygon id="Path" fill="#A9CAFF" points="87.0595267 0.838159091 102.014563 15.7788695 94.4098572 23.377849 79.4532607 8.43557957"></polygon>
                    <polygon id="Path" fill="#A9CAFF" points="135.214155 115.792309 150.169191 130.734053 142.564486 138.331999 127.607889 123.390255"></polygon>
                    <polygon id="Path" points="156.584549 50.7086477 177.73577 50.7086477 177.73577 60.569762 156.584549 60.569762"></polygon>
                    <polygon id="Path" fill="#A9CAFF" points="121.757468 7.87180577 131.628038 7.87180577 131.628038 29.002765 121.757468 29.002765"></polygon>
                    <polygon id="Path" fill="#3583FF" points="85.7134025 86.2129343 95.5839721 86.2129343 95.5839721 107.343894 85.7134025 107.343894"></polygon>
                    <polygon id="Path" fill="#64A0FF" points="122.20053 83.7941515 137.156601 68.8518821 144.761832 76.4508619 129.805762 91.391572"></polygon>
                </g>
            </g>
        </g>
    </g>
</svg>