<?xml version="1.0" encoding="UTF-8"?>
<svg width="15px" height="15px" viewBox="0 0 15 15" version="1.1" xmlns="http://www.w3.org/2000/svg" xmlns:xlink="http://www.w3.org/1999/xlink">
    <!-- Generator: Sketch 54.1 (76490) - https://sketchapp.com -->
    <title>ico/in</title>
    <desc>Created with Sketch.</desc>
    <g id="New-Design" stroke="none" stroke-width="1" fill="none" fill-rule="evenodd">
        <g id="2.3-Sign-Up-patient-finish" transform="translate(-327.000000, -662.000000)" fill="#000">
            <g id="Social-network" transform="translate(130.000000, 662.000000)">
                <g id="ico/in" transform="translate(197.000000, 0.428571)">
                    <path d="M3.82666667,5.31771429 L3.82666667,14.1428571 L0.0933333333,14.1428571 L0.0933333333,5.31771429 L3.82666667,5.31771429 Z M0.56,3.37542857 C0.1866648,2.98571234 3.19744231e-13,2.52057413 3.19744231e-13,1.98 C3.19744231e-13,1.43942587 0.18977588,0.974287663 0.569333333,0.584571429 C0.948890787,0.194855194 1.41244171,-1.95399252e-14 1.96,-1.95399252e-14 C2.50755829,-1.95399252e-14 2.97110921,0.194855194 3.35066667,0.584571429 C3.73022412,0.974287663 3.92,1.43942587 3.92,1.98 C3.92,2.52057413 3.73022412,2.98571234 3.35066667,3.37542857 C2.97110921,3.76514481 2.50755829,3.96 1.96,3.96 C1.41244171,3.96 0.945779707,3.76514481 0.56,3.37542857 Z M11.1626667,14.1428571 L11.1626667,9.18342857 C11.1626667,8.93199874 11.0880007,8.72457225 10.9386667,8.56114286 C10.7893326,8.39771347 10.5964456,8.316 10.36,8.316 C10.1235544,8.316 9.93066741,8.39771347 9.78133333,8.56114286 C9.63199925,8.72457225 9.55733333,8.93199874 9.55733333,9.18342857 L9.55733333,14.1428571 L5.824,14.1428571 L5.824,5.31771429 L9.55733333,5.31771429 L9.55733333,6.29828571 C10.1920032,5.49371026 11.0506613,5.09142857 12.1333333,5.09142857 C12.9422263,5.09142857 13.6048863,5.37742571 14.1213333,5.94942857 C14.6377804,6.52143143 14.896,7.29770938 14.896,8.27828571 L14.896,14.1428571 L11.1626667,14.1428571 Z"></path>
                </g>
            </g>
        </g>
    </g>
</svg>
