<?xml version="1.0" encoding="UTF-8"?>
<svg width="16px" height="24px" viewBox="0 0 16 24" version="1.1" xmlns="http://www.w3.org/2000/svg" xmlns:xlink="http://www.w3.org/1999/xlink">
    <!-- Generator: Sketch 54.1 (76490) - https://sketchapp.com -->
    <title>mic</title>
    <desc>Created with Sketch.</desc>
    <defs>
        <path d="M7,22 L7,19.9381062 C3.05368847,19.4460081 6.07910404e-08,16.0796176 0,12 L0,10 C0,9.44771525 0.44771525,9 1,9 C1.55228475,9 2,9.44771525 2,10 L2,12 C2.00000005,15.3137084 4.68629154,17.9999999 8,18 C11.3137085,17.9999999 14,15.3137084 14,12 L14,10 C14,9.44771525 14.4477153,9 15,9 C15.5522847,9 16,9.44771525 16,10 L16,12 C15.9999999,16.0796176 12.9463115,19.4460081 9,19.9381062 L9,22 L12,22 C12.5522847,22 13,22.4477153 13,23 C13,23.5522847 12.5522847,24 12,24 L4,24 C3.44771525,24 3,23.5522847 3,23 C3,22.4477153 3.44771525,22 4,22 L7,22 Z M8,0 C10.209139,0 12,1.790861 12,4 L12,12 C12,14.209139 10.209139,16 8,16 C5.790861,16 4,14.209139 4,12 L4,4 C4,1.790861 5.790861,-6.66133815e-16 8,0 Z" id="path-1"></path>
    </defs>
    <g id="New-Design" stroke="none" stroke-width="1" fill="none" fill-rule="evenodd">
        <g id="3.4-Consultation-qestion-video" transform="translate(-652.000000, -612.000000)">
            <g id="video" transform="translate(243.000000, 112.000000)">
                <g id="pic">
                    <g id="1">
                        <g id="line" transform="translate(0.000000, 478.000000)">
                            <g id="btn" transform="translate(327.000000, 14.000000)">
                                <g id="Group-6" transform="translate(19.000000, 0.000000)">
                                    <g id="mic" transform="translate(63.000000, 8.000000)">
                                        <mask id="mask-2" fill="white">
                                            <use xlink:href="#path-1"></use>
                                        </mask>
                                        <use id="Combined-Shape" fill="#FFFFFF" fill-rule="nonzero" xlink:href="#path-1"></use>
                                    </g>
                                </g>
                            </g>
                        </g>
                    </g>
                </g>
            </g>
        </g>
    </g>
</svg>