<?xml version="1.0" encoding="UTF-8"?>
<svg width="15px" height="24px" viewBox="0 0 15 24" version="1.1" xmlns="http://www.w3.org/2000/svg" xmlns:xlink="http://www.w3.org/1999/xlink">
    <!-- Generator: Sketch 54.1 (76490) - https://sketchapp.com -->
    <title>Microphone</title>
    <desc>Created with Sketch.</desc>
    <g id="Design" stroke="none" stroke-width="1" fill="none" fill-rule="evenodd" opacity="0.300000012">
        <g id="3.-Chat-v.1" transform="translate(-1283.000000, -717.000000)" fill="#292F4C" fill-rule="nonzero">
            <g id="Send-Message" transform="translate(243.000000, 677.000000)">
                <g id="Group-10" transform="translate(973.000000, 40.000000)">
                    <g id="Microphone" transform="translate(67.000000, 0.000000)">
                        <path d="M1.56508136,22.7233816 L6.03524905,21.3785331 L6.03524905,17.126323 C2.80873989,16.5292293 0.375444085,13.9959387 0.375444085,10.9683836 C0.375444085,10.5648774 0.745040132,10.2385093 1.20257606,10.2385093 C1.32326496,10.2385093 1.44029883,10.2626513 1.54249331,10.30306 C1.83182503,10.418993 2.03445957,10.6719024 2.03445957,10.9683836 C2.03445957,13.6307756 4.48434919,15.7951592 7.49930555,15.7951592 C10.5130923,15.7951592 12.9665638,13.6307111 12.9665638,10.9683836 C12.9665638,10.6724834 13.1680288,10.418993 13.4550213,10.30306 C13.5590433,10.2626513 13.6743227,10.2385093 13.7949385,10.2385093 C14.254302,10.2385093 14.6256524,10.5648774 14.6256524,10.9683836 C14.6256524,13.9954223 12.1930145,16.5287129 8.96233863,17.126323 L8.96233863,21.3780167 L13.4360882,22.7233816 L14.4355181,22.7233816 C14.7486805,22.7233816 15,22.9479533 15,23.2228746 L15,23.4994096 C15,23.7759447 14.7486805,24 14.4355181,24 L0.565651545,24 C0.252562172,24 0,23.7759447 0,23.4994096 L0,23.2228746 C0,22.9479533 0.252489071,22.7233816 0.565651545,22.7233816 L1.56508136,22.7233816 Z M3.20333631,3.79306134 C3.20333631,2.44724463 4.00071638,1.2713898 5.20278074,0.598190968 L5.20278074,3.60263689 C5.20278074,3.95734277 5.52953991,4.2485308 5.93422418,4.2485308 C6.33949327,4.2485308 6.66508282,3.95785918 6.66508282,3.60263689 L6.66508282,0.0744914618 C6.93606632,0.0293705504 7.21355575,0 7.49996345,0 C7.78461673,0 8.06269098,0.0293705504 8.33367447,0.0744914618 L8.33367447,3.60257234 C8.33367447,3.95727822 8.66109154,4.24846625 9.06694542,4.24846625 C9.4709718,4.24846625 9.79838887,3.95779463 9.79838887,3.60257234 L9.79838887,0.598126417 C10.9963596,1.27132525 11.7979064,2.44718008 11.7979064,3.79306134 L11.7979064,10.9589592 C11.7979064,13.0556938 9.87148935,14.7546671 7.49945175,14.7546671 C5.12558663,14.7546671 3.20333631,13.0556938 3.20333631,10.9589592 L3.20333631,3.79306134 Z"></path>
                    </g>
                </g>
            </g>
        </g>
    </g>
</svg>