<?xml version="1.0" encoding="UTF-8"?>
<svg width="27px" height="6px" viewBox="0 0 27 6" version="1.1" xmlns="http://www.w3.org/2000/svg" xmlns:xlink="http://www.w3.org/1999/xlink">
    <!-- Generator: Sketch 54.1 (76490) - https://sketchapp.com -->
    <title>Options</title>
    <desc>Created with Sketch.</desc>
    <g id="New-Design" stroke="none" stroke-width="1" fill="none" fill-rule="evenodd">
        <g id="2.1-Consultations" transform="translate(-1311.000000, -46.000000)" fill="#D6D8DA">
            <g id="Chat" transform="translate(282.000000, 32.000000)">
                <g id="title">
                    <g id="Group-10" transform="translate(945.000000, 9.000000)">
                        <g id="Group-9">
                            <g id="Options" transform="translate(84.669689, 4.980570)">
                                <circle id="Dot" cx="22.9106218" cy="2.98834197" r="2.98834197"></circle>
                                <circle id="Dot" cx="12.9494819" cy="2.98834197" r="2.98834197"></circle>
                                <circle id="Dot" cx="2.98834197" cy="2.98834197" r="2.98834197"></circle>
                            </g>
                        </g>
                    </g>
                </g>
            </g>
        </g>
    </g>
</svg>