<?xml version="1.0" encoding="UTF-8"?>
<svg width="41px" height="32px" viewBox="0 0 41 32" version="1.1" xmlns="http://www.w3.org/2000/svg" xmlns:xlink="http://www.w3.org/1999/xlink">
    <!-- Generator: Sketch 54.1 (76490) - https://sketchapp.com -->
    <title>photo-camera</title>
    <desc>Created with Sketch.</desc>
    <g id="New-Design" stroke="none" stroke-width="1" fill="none" fill-rule="evenodd">
        <g id="3.1-Settings-user" transform="translate(-396.000000, -122.000000)" fill="#FFFFFF" fill-rule="nonzero">
            <g id="John-Doe" transform="translate(365.000000, 87.000000)">
                <g id="photo-camera" transform="translate(31.000000, 35.000000)">
                    <path d="M36.2610169,32 L4.7382458,32 C2.12515135,32 0,29.9006942 0,27.3193794 L0,8.33701779 C0,5.75570307 2.12515135,3.65639722 4.7382458,3.65639722 L11.1704688,3.65639722 L11.7334896,1.78019194 C11.9632689,0.753540948 12.913351,0 14.0307911,0 L26.9693318,0 C28.0551926,0 29.0162107,0.749656716 29.2705654,1.78953837 L29.2855563,1.85350681 L29.798812,3.65627584 L36.2617542,3.65627584 C38.8748487,3.65627584 41,5.75558169 41,8.33689641 L41,27.3191367 C40.9992627,29.9006942 38.8733741,32 36.2610169,32 Z M4.7382458,5.21664454 C2.99610091,5.21664454 1.57945623,6.61618177 1.57945623,8.33701779 L1.57945623,27.3192581 C1.57945623,29.0402155 2.99622379,30.4396313 4.7382458,30.4396313 L36.2610169,30.4396313 C38.0031618,30.4396313 39.4198065,29.0400941 39.4198065,27.3192581 L39.4198065,8.33701779 C39.4198065,6.61606039 38.0030389,5.21664454 36.2610169,5.21664454 L28.6024851,5.21664454 L27.7378022,2.17031446 C27.6580553,1.81612108 27.3350126,1.55951902 26.9685945,1.55951902 L14.0299309,1.55951902 C13.6579834,1.55951902 13.3420676,1.81065888 13.2607232,2.17116413 L12.3478727,5.21664454 L4.7382458,5.21664454 Z M20.5008601,27.2841786 C14.9737464,27.2841786 10.477076,22.8430452 10.477076,17.3838789 C10.477076,11.9239844 14.9736235,7.48285097 20.5008601,7.48285097 C26.0264994,7.48285097 30.5223096,11.9247127 30.5223096,17.3838789 C30.5221867,22.8423169 26.0263765,27.2841786 20.5008601,27.2841786 Z M20.5008601,9.04224861 C15.8446959,9.04224861 12.0565322,12.7836134 12.0565322,17.3831506 C12.0565322,21.9826879 15.8448188,25.723203 20.5008601,25.723203 C25.1561642,25.723203 28.9428534,21.9818382 28.9428534,17.3831506 C28.9427305,12.7836134 25.1553041,9.04224861 20.5008601,9.04224861 Z M35.2415095,8.11233926 C34.4360532,8.11233926 33.7844384,8.75748587 33.7844384,9.55168987 C33.7844384,10.3466222 34.4359303,10.9909191 35.2415095,10.9909191 C36.0462286,10.9909191 36.6977205,10.3465008 36.6977205,9.55168987 C36.6969832,8.75748587 36.0453685,8.11233926 35.2415095,8.11233926 Z" id="Shape"></path>
                </g>
            </g>
        </g>
    </g>
</svg>