<?xml version="1.0" encoding="UTF-8"?>
<svg width="6px" height="10px" viewBox="0 0 6 10" version="1.1" xmlns="http://www.w3.org/2000/svg" xmlns:xlink="http://www.w3.org/1999/xlink">
    <!-- Generator: Sketch 54.1 (76490) - https://sketchapp.com -->
    <title>icon-02</title>
    <desc>Created with Sketch.</desc>
    <g id="Symbols" stroke="none" stroke-width="1" fill="none" fill-rule="evenodd">
        <g id="month" transform="translate(-106.000000, -11.000000)" fill="#323C47">
            <g id="name" transform="translate(2.000000, 5.000000)">
                <g id="icon-02" transform="translate(104.000000, 6.000000)">
                    <polygon id="shape" transform="translate(3.000000, 5.000000) scale(-1, 1) translate(-3.000000, -5.000000) " points="2.34229996 5 5.8125 8.95886563 4.5703212 10 0.1875 5 4.5703212 0 5.8125 1.04113437"></polygon>
                </g>
            </g>
        </g>
    </g>
</svg>