<?xml version="1.0" encoding="UTF-8"?>
<svg width="17px" height="16px" viewBox="0 0 17 16" version="1.1" xmlns="http://www.w3.org/2000/svg" xmlns:xlink="http://www.w3.org/1999/xlink">
    <!-- Generator: Sketch 54.1 (76490) - https://sketchapp.com -->
    <title>Shape</title>
    <desc>Created with Sketch.</desc>
    <g id="New-Design" stroke="none" stroke-width="1" fill="none" fill-rule="evenodd">
        <g id="2.1-Consultations" transform="translate(-1227.000000, -41.000000)" fill="#D6D8DA">
            <g id="Chat" transform="translate(282.000000, 32.000000)">
                <g id="title">
                    <g id="Group-10" transform="translate(945.000000, 9.000000)">
                        <g id="Group-9">
                            <g id="Call" transform="translate(0.000000, -0.000000)">
                                <path d="M16.2296961,12.7041021 L16.1485492,12.4650356 C15.9563593,11.9064899 15.3264203,11.3239574 14.7476978,11.1704818 L12.6058301,10.5983726 C12.0249892,10.4438613 11.1964369,10.6516247 10.7714664,11.067118 L9.99628299,11.825075 C7.17910239,11.0807484 4.96999381,8.92066428 4.20977565,6.16662221 L4.98499317,5.40863174 C5.40996367,4.99310503 5.62241475,4.18403397 5.46439188,3.6161007 L4.88033932,1.52079441 C4.72231644,0.953896782 4.12545122,0.337956444 3.55530468,0.152108633 L3.31080485,0.0717293712 C2.73956496,-0.11411844 1.92488443,0.0738340651 1.4999481,0.489327365 L0.340384763,1.62415827 C0.133229584,1.82564095 0.000832037782,2.40192618 0.000832037782,2.40403087 C-0.0397243201,6.00372558 1.40383602,9.47186022 4.0079847,12.0181723 C6.60574414,14.5582038 10.139409,15.9676137 13.8102207,15.9373462 C13.8294226,15.9373462 14.4358888,15.8099621 14.6430439,15.608446 L15.8026073,14.4746508 C16.2275436,14.0591909 16.4197336,13.2626478 16.2296961,12.7041021 Z" id="Shape"></path>
                            </g>
                        </g>
                    </g>
                </g>
            </g>
        </g>
    </g>
</svg>