<?xml version="1.0" encoding="UTF-8"?>
<svg width="15px" height="13px" viewBox="0 0 15 13" version="1.1" xmlns="http://www.w3.org/2000/svg" xmlns:xlink="http://www.w3.org/1999/xlink">
    <!-- Generator: Sketch 54.1 (76490) - https://sketchapp.com -->
    <title>ico/twitter</title>
    <desc>Created with Sketch.</desc>
    <g id="New-Design" stroke="none" stroke-width="1" fill="none" fill-rule="evenodd">
        <g id="2.3-Sign-Up-patient-finish" transform="translate(-130.000000, -663.000000)" fill="#000">
            <g id="Social-network" transform="translate(130.000000, 662.000000)">
                <g id="ico/twitter" transform="translate(0.000000, 1.438776)">
                    <path d="M7.28335593,3.22476124 L7.31587091,3.74909134 L6.77395454,3.68488766 C4.80137898,3.43877352 3.07808494,2.6041256 1.61491076,1.20234512 L0.899581163,0.506805186 L0.7153296,1.02043468 C0.325149818,2.16540041 0.574431345,3.37456984 1.38730589,4.18781653 C1.82083898,4.63724233 1.72329404,4.70144602 0.975449454,4.43393066 C0.7153296,4.34832575 0.487724727,4.28412206 0.466048073,4.3162239 C0.390179782,4.3911282 0.650299636,5.36488411 0.856227854,5.75010623 C1.13802436,6.28513695 1.71245571,6.80946705 2.34107869,7.11978487 L2.87215673,7.365899 L2.24353375,7.37659961 C1.63658742,7.37659961 1.61491076,7.38730023 1.67994073,7.61201313 C1.89670727,8.30755306 2.75293513,9.04589546 3.70670793,9.36691389 L4.37868422,9.59162679 L3.79341454,9.93404645 C2.92634836,10.4262747 1.9075456,10.7044907 0.888742836,10.7258919 C0.401018109,10.7365925 -2.84217094e-14,10.779395 -2.84217094e-14,10.8114968 C-2.84217094e-14,10.918503 1.32227593,11.5177374 2.09179716,11.7531509 C4.40036087,12.4486908 7.14245767,12.1490736 9.20173985,10.9613054 C10.664914,10.1159569 12.1280882,8.43596044 12.8109028,6.80946705 C13.179406,5.94271729 13.5479091,4.35902636 13.5479091,3.59928274 C13.5479091,3.10705448 13.5804241,3.04285079 14.1873704,2.454317 C14.5450352,2.11189734 14.8810233,1.73737584 14.9460533,1.6303697 C15.0544366,1.42705802 15.0435983,1.42705802 14.4908436,1.60896847 C13.5695857,1.9299869 13.4395258,1.88718444 13.8947356,1.40565679 C14.2307237,1.06323713 14.6317418,0.4426015 14.6317418,0.260691056 C14.6317418,0.228589213 14.4691669,0.282092285 14.2849153,0.378397814 C14.0898255,0.485403958 13.6562924,0.645913173 13.3311425,0.742218703 L12.7458729,0.924129147 L12.2147948,0.571008873 C11.92216,0.378397814 11.5103036,0.164385526 11.293537,0.10018184 C10.7407823,-0.049626761 9.8953928,-0.0282255323 9.39682974,0.142984298 C8.04203883,0.624511945 7.18581098,1.86578321 7.28335593,3.22476124 Z"></path>
                </g>
            </g>
        </g>
    </g>
</svg>
