<?xml version="1.0" encoding="UTF-8"?>
<svg width="265px" height="183px" viewBox="0 0 265 183" version="1.1" xmlns="http://www.w3.org/2000/svg" xmlns:xlink="http://www.w3.org/1999/xlink">
    <!-- Generator: Sketch 54.1 (76490) - https://sketchapp.com -->
    <title>Group 19</title>
    <desc>Created with Sketch.</desc>
    <defs>
        <rect id="path-1" x="0" y="0" width="211.199987" height="129.725835" rx="7.91011189"></rect>
        <filter x="-21.1%" y="-28.1%" width="142.1%" height="168.6%" filterUnits="objectBoundingBox" id="filter-3">
            <feOffset dx="0" dy="8" in="SourceAlpha" result="shadowOffsetOuter1"></feOffset>
            <feGaussianBlur stdDeviation="13.5" in="shadowOffsetOuter1" result="shadowBlurOuter1"></feGaussianBlur>
            <feColorMatrix values="0 0 0 0 0   0 0 0 0 0   0 0 0 0 0  0 0 0 0.1 0" type="matrix" in="shadowBlurOuter1"></feColorMatrix>
        </filter>
    </defs>
    <g id="New-Design" stroke="none" stroke-width="1" fill="none" fill-rule="evenodd">
        <g id="4.0-Settings" transform="translate(-987.000000, -964.000000)">
            <g id="Group-8" transform="translate(243.000000, 983.000000)">
                <g id="Group-20" transform="translate(771.000000, 0.000000)">
                    <g id="Group-19">
                        <g id="ico/VISA">
                            <g>
                                <mask id="mask-2" fill="white">
                                    <use xlink:href="#path-1"></use>
                                </mask>
                                <g id="Mask">
                                    <use fill="black" fill-opacity="1" filter="url(#filter-3)" xlink:href="#path-1"></use>
                                    <use fill="#64A0FF" fill-rule="evenodd" xlink:href="#path-1"></use>
                                </g>
                                <g opacity="0.200000003" mask="url(#mask-2)">
                                    <g transform="translate(46.669660, -18.193257)">
                                        <g>
                                            <g id="Group">
                                                <g fill="#FFFFFF">
                                                    <polygon id="Path" points="74.5901249 56.184096 60.6493887 56.184096 69.4162434 1.74665583 83.3569797 1.74665583"></polygon>
                                                    <path d="M48.8644364,1.74665583 L35.4985758,39.1542016 L33.9176676,31.1486957 L33.9176676,31.1486957 L29.1749429,6.69551403 C29.1749429,6.69551403 28.6000672,1.74665583 22.5638721,1.74665583 L0.574875722,1.74665583 L0.287437861,2.61998375 C0.287437861,2.61998375 7.04222759,4.07553028 14.9467688,8.87883382 L27.1628779,56.184096 L41.6784898,56.184096 L63.9549241,1.74665583 L48.8644364,1.74665583 Z" id="Path"></path>
                                                    <path d="M158.953137,56.184096 L171.744122,56.184096 L160.534045,1.74665583 L149.323969,1.74665583 C144.150087,1.74665583 142.856617,5.82218611 142.856617,5.82218611 L122.017372,56.184096 L136.532984,56.184096 L139.407363,48.0330354 L157.22851,48.0330354 L158.953137,56.184096 Z M143.575212,36.8253272 L150.904877,16.4476758 L155.072726,36.8253272 L143.575212,36.8253272 Z" id="Shape" fill-rule="nonzero"></path>
                                                    <path d="M123.023405,14.8465746 L125.03547,3.20220236 C125.03547,3.20220236 118.855556,0.873327917 112.388204,0.873327917 C105.489695,0.873327917 88.962018,3.92997563 88.962018,18.9221049 C88.962018,33.0409062 108.364074,33.1864608 108.364074,40.6097481 C108.364074,48.0330354 90.974083,46.7230436 85.2253258,42.0652947 L83.2132608,54.2918855 C83.2132608,54.2918855 89.3931748,57.3485332 99.0223431,57.3485332 C108.507793,57.3485332 123.023405,52.399675 123.023405,38.7175377 C123.023405,24.5987363 103.47763,23.2887445 103.47763,17.0298944 C103.47763,10.6254897 117.130928,11.4988176 123.023405,14.8465746 Z" id="Path"></path>
                                                </g>
                                                <path d="M33.9176676,31.1486957 L29.1749429,6.69551403 C29.1749429,6.69551403 28.6000672,1.74665583 22.5638721,1.74665583 L0.574875722,1.74665583 L0.287437861,2.61998375 C0.287437861,2.61998375 10.9226387,4.80330354 20.9829639,13.2454734 C30.7558511,21.1054247 33.9176676,31.1486957 33.9176676,31.1486957 Z" id="Path" fill="#B1CFFF"></path>
                                            </g>
                                        </g>
                                    </g>
                                </g>
                            </g>
                            <g transform="translate(23.730336, 15.820224)" id="Group">
                                <g>
                                    <g>
                                        <g fill="#FFFFFF">
                                            <polygon id="Path" points="27.3689855 20.1517998 22.2537801 20.1517998 25.4705588 0.626480824 30.5857641 0.626480824"></polygon>
                                            <path d="M17.9295859,0.626480824 L13.0253168,14.0436118 L12.445242,11.1722414 L12.445242,11.1722414 L10.7050175,2.40150983 C10.7050175,2.40150983 10.4940811,0.626480824 8.27924995,0.626480824 L0.210936304,0.626480824 L0.105468152,0.939721236 C0.105468152,0.939721236 2.58396973,1.46178859 5.48434392,3.18461086 L9.96674038,20.1517998 L15.2928821,20.1517998 L23.4666639,0.626480824 L17.9295859,0.626480824 Z" id="Path"></path>
                                            <path d="M58.3238882,20.1517998 L63.017221,20.1517998 L58.903963,0.626480824 L54.7907051,0.626480824 C52.8922783,0.626480824 52.4176717,2.08826941 52.4176717,2.08826941 L44.7712306,20.1517998 L50.0973723,20.1517998 L51.1520538,17.2282227 L57.6910793,17.2282227 L58.3238882,20.1517998 Z M52.681342,13.208304 L55.3707799,5.89936109 L56.9000681,13.208304 L52.681342,13.208304 Z" id="Shape" fill-rule="nonzero"></path>
                                            <path d="M45.1403692,5.32508701 L45.8786462,1.14854818 C45.8786462,1.14854818 43.6110809,0.313240412 41.2380475,0.313240412 C38.7068119,0.313240412 32.6423931,1.40958185 32.6423931,6.7868756 C32.6423931,11.8509289 39.7614934,11.9031357 39.7614934,14.5656792 C39.7614934,17.2282227 33.3806702,16.758362 31.2713071,15.0877465 L30.5330301,19.4731123 C30.5330301,19.4731123 32.8005953,20.5694537 36.3337784,20.5694537 C39.8142275,20.5694537 45.1403692,18.7944247 45.1403692,13.8869916 C45.1403692,8.82293827 37.9685348,8.35307766 37.9685348,6.10818804 C37.9685348,3.81109168 42.978272,4.12433209 45.1403692,5.32508701 Z" id="Path"></path>
                                        </g>
                                        <path d="M12.445242,11.1722414 L10.7050175,2.40150983 C10.7050175,2.40150983 10.4940811,0.626480824 8.27924995,0.626480824 L0.210936304,0.626480824 L0.105468152,0.939721236 C0.105468152,0.939721236 4.00778978,1.72282227 7.69917511,4.75081292 C11.2850923,7.56997663 12.445242,11.1722414 12.445242,11.1722414 Z" id="Path" fill="#B1CFFF"></path>
                                    </g>
                                </g>
                            </g>
                        </g>
                        <text id="****-****-****-****" font-family="Montserrat-Regular, Montserrat" font-size="15.8202238" font-weight="normal" line-spacing="15.8202238" fill="#FFFFFF">
                            <tspan x="23.7303357" y="89.3550517">****     ****     ****     ****</tspan>
                        </text>
                        <g id="Group-16" transform="translate(26.685392, 102.831455)" fill="#FFFFFF" font-family="Montserrat-Regular, Montserrat" font-weight="normal">
                            <text id="John-Doe" font-size="9.49213427" line-spacing="9.49213427">
                                <tspan x="0.939324475" y="9">John Doe</tspan>
                            </text>
                            <text id="12/21" font-size="11.0741566" line-spacing="11.0741566">
                                <tspan x="137.644936" y="11">12/21</tspan>
                            </text>
                        </g>
                    </g>
                </g>
            </g>
        </g>
    </g>
</svg>