<?xml version="1.0" encoding="UTF-8"?>
<svg width="16px" height="15px" viewBox="0 0 16 15" version="1.1" xmlns="http://www.w3.org/2000/svg" xmlns:xlink="http://www.w3.org/1999/xlink">
    <!-- Generator: Sketch 52.1 (67048) - http://www.bohemiancoding.com/sketch -->
    <title>Instagram</title>
    <desc>Created with Sketch.</desc>
    <g id="Mobile" stroke="none" stroke-width="1" fill="none" fill-rule="evenodd">
        <g id="1.-menu_specialists" transform="translate(-279.000000, -625.000000)" fill="#F7F7F7">
            <g id="footer" transform="translate(80.000000, 625.000000)">
                <g id="social">
                    <g id="Instagram" transform="translate(198.979798, 0.000000)">
                        <g id="ico/in_black">
                            <path d="M3.86531987,5.37142857 L3.86531987,14.2857143 L0.0942760943,14.2857143 L0.0942760943,5.37142857 L3.86531987,5.37142857 Z M0.565656566,3.40952381 C0.188550303,3.01587105 -6.28830321e-13,2.54603448 -6.28830321e-13,2 C-6.28830321e-13,1.45396552 0.191692808,0.984128952 0.575084175,0.59047619 C0.958475542,0.196823429 1.42670879,-3.46389584e-14 1.97979798,-3.46389584e-14 C2.53288716,-3.46389584e-14 3.00112042,0.196823429 3.38451178,0.59047619 C3.76790315,0.984128952 3.95959596,1.45396552 3.95959596,2 C3.95959596,2.54603448 3.76790315,3.01587105 3.38451178,3.40952381 C3.00112042,3.80317657 2.53288716,4 1.97979798,4 C1.42670879,4 0.955333037,3.80317657 0.565656566,3.40952381 Z M11.2754209,14.2857143 L11.2754209,9.27619048 C11.2754209,9.02222095 11.2000008,8.81269924 11.0491582,8.64761905 C10.8983157,8.48253886 10.7034804,8.4 10.4646465,8.4 C10.2258125,8.4 10.0309772,8.48253886 9.88013468,8.64761905 C9.72929218,8.81269924 9.65387205,9.02222095 9.65387205,9.27619048 L9.65387205,14.2857143 L5.88282828,14.2857143 L5.88282828,5.37142857 L9.65387205,5.37142857 L9.65387205,6.36190476 C10.2949527,5.54920229 11.1622841,5.14285714 12.2558923,5.14285714 C13.0729558,5.14285714 13.7423094,5.43174314 14.2639731,6.00952381 C14.7856367,6.58730448 15.0464646,7.37142362 15.0464646,8.36190476 L15.0464646,14.2857143 L11.2754209,14.2857143 Z"></path>
                        </g>
                    </g>
                </g>
            </g>
        </g>
    </g>
</svg>