<?xml version="1.0" encoding="UTF-8"?>
<svg width="17px" height="21px" viewBox="0 0 17 21" version="1.1" xmlns="http://www.w3.org/2000/svg" xmlns:xlink="http://www.w3.org/1999/xlink">
    <!-- Generator: Sketch 54.1 (76490) - https://sketchapp.com -->
    <title>👌</title>
    <desc>Created with Sketch.</desc>
    <g id="New-Design" stroke="none" stroke-width="1" fill="none" fill-rule="evenodd" font-family="AppleColorEmoji, Apple Color Emoji" font-size="15.9378238" font-weight="normal">
        <g id="2.1-Consultations" transform="translate(-1124.000000, -687.000000)" fill="#181C2F">
            <g id="Send-Message" transform="translate(243.000000, 677.000000)">
                <g id="Emoji-List" transform="translate(729.000000, 0.000000)">
                    <g id="Emoji" transform="translate(24.902850, 7.968912)">
                        <text id="👌">
                            <tspan x="124.514249" y="20">👌</tspan>
                        </text>
                    </g>
                </g>
            </g>
        </g>
    </g>
</svg>