<?xml version="1.0" encoding="UTF-8"?>
<svg width="16px" height="10px" viewBox="0 0 16 10" version="1.1" xmlns="http://www.w3.org/2000/svg" xmlns:xlink="http://www.w3.org/1999/xlink">
    <!-- Generator: Sketch 52.1 (67048) - http://www.bohemiancoding.com/sketch -->
    <title>bell</title>
    <desc>Created with Sketch.</desc>
    <defs>
        <path d="M11.3333333,6.21449333 L11.3333333,8.125 C11.3333333,9.16053391 10.4379028,10 9.33333333,10 L2,10 C0.8954305,10 2.22044605e-16,9.16053391 0,8.125 L0,1.875 C-1.11022302e-16,0.839466094 0.8954305,0 2,0 L9.33333333,0 C10.4379028,-8.32667268e-16 11.3333333,0.839466094 11.3333333,1.875 L11.3333333,3.78550667 L14.9458412,1.36641658 C15.3870869,1.07093958 16,1.36664215 16,1.875 L16,8.125 C16,8.63335785 15.3870869,8.92906042 14.9458412,8.63358342 L11.3333333,6.21449333 Z M2,1.25 C1.63181017,1.25 1.33333333,1.52982203 1.33333333,1.875 L1.33333333,8.125 C1.33333333,8.47017797 1.63181017,8.75 2,8.75 L9.33333333,8.75 C9.70152317,8.75 10,8.47017797 10,8.125 L10,1.875 C10,1.52982203 9.70152317,1.25 9.33333333,1.25 L2,1.25 Z M11.8136434,5 L14.6666667,6.91050667 L14.6666667,3.08949333 L11.8136434,5 Z" id="path-1"></path>
    </defs>
    <g id="New-Design" stroke="none" stroke-width="1" fill="none" fill-rule="evenodd">
        <g id="1.2-Dashboard-menu-new" transform="translate(-1271.000000, -727.000000)">
            <g id="Group-3" transform="translate(375.000000, 710.000000)">
                <g id="01">
                    <g id="bell" transform="translate(896.000000, 17.000000)">
                        <mask id="mask-2" fill="white">
                            <use xlink:href="#path-1"></use>
                        </mask>
                        <use id="Combined-Shape" fill="#FF5151" fill-rule="nonzero" xlink:href="#path-1"></use>
                    </g>
                </g>
            </g>
        </g>
    </g>
</svg>