<?xml version="1.0" encoding="UTF-8"?>
<svg width="20px" height="20px" viewBox="0 0 20 20" version="1.1" xmlns="http://www.w3.org/2000/svg" xmlns:xlink="http://www.w3.org/1999/xlink">
    <!-- Generator: Sketch 52.1 (67048) - http://www.bohemiancoding.com/sketch -->
    <title>clock</title>
    <desc>Created with Sketch.</desc>
    <defs>
        <path d="M10.1052632,19.3684211 C4.98936232,19.3684211 0.842105263,15.221164 0.842105263,10.1052632 C0.842105263,4.98936232 4.98936232,0.842105263 10.1052632,0.842105263 C15.221164,0.842105263 19.3684211,4.98936232 19.3684211,10.1052632 C19.3684211,15.221164 15.221164,19.3684211 10.1052632,19.3684211 Z M10.1052632,17.6842105 C14.2910002,17.6842105 17.6842105,14.2910002 17.6842105,10.1052632 C17.6842105,5.91952611 14.2910002,2.52631579 10.1052632,2.52631579 C5.91952611,2.52631579 2.52631579,5.91952611 2.52631579,10.1052632 C2.52631579,14.2910002 5.91952611,17.6842105 10.1052632,17.6842105 Z M10.9473684,5.05263158 L10.9473684,9.75645174 L13.2270373,12.0361206 C13.5558999,12.3649832 13.5558999,12.8981747 13.2270373,13.2270373 C12.8981747,13.5558999 12.3649832,13.5558999 12.0361206,13.2270373 L9.50980482,10.7007215 C9.35187944,10.5427961 9.26315789,10.3286034 9.26315789,10.1052632 L9.26315789,5.05263158 C9.26315789,4.58754968 9.64018126,4.21052632 10.1052632,4.21052632 C10.5703451,4.21052632 10.9473684,4.58754968 10.9473684,5.05263158 Z" id="path-1"></path>
    </defs>
    <g id="New-Design" stroke="none" stroke-width="1" fill="none" fill-rule="evenodd">
        <g id="2.0-Calendar-consultant-menu" transform="translate(-670.000000, -509.000000)">
            <g id="1440/day/not_active_looper_looper" transform="translate(367.000000, 142.000000)">
                <g id="menu" transform="translate(272.000000, 288.000000)">
                    <g id="Group-9">
                        <g id="Group-2" transform="translate(31.000000, 74.000000)">
                            <g id="clock" transform="translate(0.000000, 5.000000)">
                                <mask id="mask-2" fill="white">
                                    <use xlink:href="#path-1"></use>
                                </mask>
                                <use id="Mask" fill="#FFFFFF" fill-rule="nonzero" xlink:href="#path-1"></use>
                            </g>
                        </g>
                    </g>
                </g>
            </g>
        </g>
    </g>
</svg>