<?xml version="1.0" encoding="UTF-8"?>
<svg width="11px" height="16px" viewBox="0 0 11 16" version="1.1" xmlns="http://www.w3.org/2000/svg" xmlns:xlink="http://www.w3.org/1999/xlink">
    <!-- Generator: Sketch 52.1 (67048) - http://www.bohemiancoding.com/sketch -->
    <title>Combined Shape</title>
    <desc>Created with Sketch.</desc>
    <defs>
        <path d="M4.32368439,4.31667851 L8.66535192,0.735643134 C9.266857,0.239517863 10.1578947,0.681052093 10.1578947,1.47524003 L10.1578947,14.7352863 C10.1578947,15.5294742 9.266857,15.9710085 8.66535192,15.4748832 L4.32368439,11.8938478 L0.971291866,11.8938478 C0.463929799,11.8938478 0.0526315789,11.469796 0.0526315789,10.9467016 L0.0526315789,5.26382467 C0.0526315789,4.74073029 0.463929799,4.31667851 0.971291866,4.31667851 L4.32368439,4.31667851 Z M5.21981555,6.00342157 C5.05692509,6.13777467 4.85453458,6.21097084 4.64593301,6.21097084 L1.88995215,6.21097084 L1.88995215,9.99955548 L4.64593301,9.99955548 C4.85453458,9.99955548 5.05692509,10.0727516 5.21981555,10.2071047 L8.32057416,12.7646304 L8.32057416,3.44589587 L5.21981555,6.00342157 Z" id="path-1"></path>
    </defs>
    <g id="New-Design" stroke="none" stroke-width="1" fill="none" fill-rule="evenodd">
        <g id="1.2-Dashboard-menu-new" transform="translate(-541.000000, -930.000000)">
            <g id="menu" transform="translate(505.000000, 810.000000)">
                <g id="Group-2" transform="translate(36.000000, 120.000000)">
                    <g id="clock">
                        <mask id="mask-2" fill="white">
                            <use xlink:href="#path-1"></use>
                        </mask>
                        <use id="Combined-Shape" fill="#FFFFFF" fill-rule="nonzero" xlink:href="#path-1"></use>
                    </g>
                </g>
            </g>
        </g>
    </g>
</svg width="11px" height="16px">